// Jest Snapshot v1, https://goo.gl/fbAQLP

exports[`FormUsers container should be able to render FormUsers successfully 1`] = `
.c7 {
  width: 100%;
  height: 47px;
  background: #08A93C;
  box-shadow: 0px 2px 2px rgba(0,0,0,0.15);
  border-radius: 0.375rem;
  border: none;
  padding: 0 1rem;
  color: #ffffff;
  font-weight: 700;
  font-size: 1rem;
  margin-top: 1rem;
  -webkit-transition: background-color 0.2s;
  transition: background-color 0.2s;
  cursor: pointer;
  outline: 0;
}

.c7:hover {
  background: #008F2D;
}

.c0 {
  margin-top: 1.5rem;
  padding: 1.5rem;
  background: #e5e5e5;
}

.c1 {
  display: -webkit-box;
  display: -webkit-flex;
  display: -ms-flexbox;
  display: flex;
  -webkit-flex-direction: column;
  -ms-flex-direction: column;
  flex-direction: column;
}

.c1 fieldset {
  padding: 1.75rem 0;
  border: none;
}

.c1 fieldset legend {
  font-size: 1.5rem;
  font-weight: 700;
}

.c2 {
  margin-bottom: 1rem;
}

.c3 {
  font-weight: 700;
}

.c4 {
  width: 100%;
  padding: 0.75rem 1rem;
  border-radius: 0.25rem;
  border: 1px solid #f3f3f3;
  font-size: 1rem;
  outline: none;
  margin-top: 0.5rem;
}

.c4:disabled {
  background: #ffffff;
}

.c5 {
  width: 100%;
  background: #ffffff;
  padding: 0.75rem 1rem;
  border-radius: 0.25rem;
  border: 1px solid #f3f3f3;
  font-size: 1rem;
  outline: none;
  margin-top: 0.5rem;
}

.c6 {
  margin-top: 0.5rem;
}

<FormUsers>
  <styled.div>
    <div
      className="c0"
    >
      <styled.form
        onSubmit={[Function]}
      >
        <form
          className="c1"
          onSubmit={[Function]}
        >
          <fieldset>
            <legend>
              Informações Pessoais:
            </legend>
            <Row
              align="normal"
              component="div"
              debug={false}
              direction="row"
              gutterWidth={null}
              justify="start"
              nogutter={false}
              nowrap={false}
              style={Object {}}
            >
              <div
                style={
                  Object {
                    "alignItems": "normal",
                    "display": "flex",
                    "flexDirection": "row",
                    "flexGrow": 0,
                    "flexShrink": 0,
                    "flexWrap": "wrap",
                    "justifyContent": "flex-start",
                    "marginLeft": -15,
                    "marginRight": -15,
                  }
                }
              >
                <Styled(Col)
                  md={4}
                  xs={12}
                >
                  <Col
                    className="c2"
                    component="div"
                    debug={false}
                    lg={null}
                    md={4}
                    offset={Object {}}
                    pull={Object {}}
                    push={Object {}}
                    sm={null}
                    style={Object {}}
                    width={null}
                    xl={null}
                    xs={12}
                    xxl={null}
                  >
                    <ScreenClassResolver>
                      <ScreenClassProvider
                        fallbackScreenClass={null}
                        useOwnWidth={false}
                      >
                        <div
                          className="c2"
                          style={
                            Object {
                              "boxSizing": "border-box",
                              "flexBasis": "33.333333333333336%",
                              "flexGrow": 0,
                              "flexShrink": 0,
                              "left": "auto",
                              "marginLeft": "0%",
                              "maxWidth": "33.333333333333336%",
                              "minHeight": 1,
                              "paddingLeft": 15,
                              "paddingRight": 15,
                              "position": "relative",
                              "right": "auto",
                              "width": "33.333333333333336%",
                            }
                          }
                        >
                          <styled.label>
                            <label
                              className="c3"
                            >
                              Login:
                            </label>
                          </styled.label>
                          <styled.input
                            disabled={false}
                            name="login"
                            onBlur={[Function]}
                            onChange={[Function]}
                          >
                            <input
                              className="c4"
                              disabled={false}
                              name="login"
                              onBlur={[Function]}
                              onChange={[Function]}
                            />
                          </styled.input>
                        </div>
                      </ScreenClassProvider>
                    </ScreenClassResolver>
                  </Col>
                </Styled(Col)>
                <Styled(Col)
                  md={4}
                  xs={12}
                >
                  <Col
                    className="c2"
                    component="div"
                    debug={false}
                    lg={null}
                    md={4}
                    offset={Object {}}
                    pull={Object {}}
                    push={Object {}}
                    sm={null}
                    style={Object {}}
                    width={null}
                    xl={null}
                    xs={12}
                    xxl={null}
                  >
                    <ScreenClassResolver>
                      <ScreenClassProvider
                        fallbackScreenClass={null}
                        useOwnWidth={false}
                      >
                        <div
                          className="c2"
                          style={
                            Object {
                              "boxSizing": "border-box",
                              "flexBasis": "33.333333333333336%",
                              "flexGrow": 0,
                              "flexShrink": 0,
                              "left": "auto",
                              "marginLeft": "0%",
                              "maxWidth": "33.333333333333336%",
                              "minHeight": 1,
                              "paddingLeft": 15,
                              "paddingRight": 15,
                              "position": "relative",
                              "right": "auto",
                              "width": "33.333333333333336%",
                            }
                          }
                        >
                          <styled.label>
                            <label
                              className="c3"
                            >
                              Senha:
                            </label>
                          </styled.label>
                          <styled.input
                            name="password"
                            onBlur={[Function]}
                            onChange={[Function]}
                            type="password"
                          >
                            <input
                              className="c4"
                              name="password"
                              onBlur={[Function]}
                              onChange={[Function]}
                              type="password"
                            />
                          </styled.input>
                        </div>
                      </ScreenClassProvider>
                    </ScreenClassResolver>
                  </Col>
                </Styled(Col)>
              </div>
            </Row>
            <Row
              align="normal"
              component="div"
              debug={false}
              direction="row"
              gutterWidth={null}
              justify="start"
              nogutter={false}
              nowrap={false}
              style={Object {}}
            >
              <div
                style={
                  Object {
                    "alignItems": "normal",
                    "display": "flex",
                    "flexDirection": "row",
                    "flexGrow": 0,
                    "flexShrink": 0,
                    "flexWrap": "wrap",
                    "justifyContent": "flex-start",
                    "marginLeft": -15,
                    "marginRight": -15,
                  }
                }
              >
                <Styled(Col)
                  md={4}
                  xs={12}
                >
                  <Col
                    className="c2"
                    component="div"
                    debug={false}
                    lg={null}
                    md={4}
                    offset={Object {}}
                    pull={Object {}}
                    push={Object {}}
                    sm={null}
                    style={Object {}}
                    width={null}
                    xl={null}
                    xs={12}
                    xxl={null}
                  >
                    <ScreenClassResolver>
                      <ScreenClassProvider
                        fallbackScreenClass={null}
                        useOwnWidth={false}
                      >
                        <div
                          className="c2"
                          style={
                            Object {
                              "boxSizing": "border-box",
                              "flexBasis": "33.333333333333336%",
                              "flexGrow": 0,
                              "flexShrink": 0,
                              "left": "auto",
                              "marginLeft": "0%",
                              "maxWidth": "33.333333333333336%",
                              "minHeight": 1,
                              "paddingLeft": 15,
                              "paddingRight": 15,
                              "position": "relative",
                              "right": "auto",
                              "width": "33.333333333333336%",
                            }
                          }
                        >
                          <styled.label>
                            <label
                              className="c3"
                            >
                              CPF:
                            </label>
                          </styled.label>
                          <styled.input
                            disabled={false}
                            name="document"
                            onBlur={[Function]}
                            onChange={[Function]}
                          >
                            <input
                              className="c4"
                              disabled={false}
                              name="document"
                              onBlur={[Function]}
                              onChange={[Function]}
                            />
                          </styled.input>
                        </div>
                      </ScreenClassProvider>
                    </ScreenClassResolver>
                  </Col>
                </Styled(Col)>
                <Styled(Col)
                  md={4}
                  xs={12}
                >
                  <Col
                    className="c2"
                    component="div"
                    debug={false}
                    lg={null}
                    md={4}
                    offset={Object {}}
                    pull={Object {}}
                    push={Object {}}
                    sm={null}
                    style={Object {}}
                    width={null}
                    xl={null}
                    xs={12}
                    xxl={null}
                  >
                    <ScreenClassResolver>
                      <ScreenClassProvider
                        fallbackScreenClass={null}
                        useOwnWidth={false}
                      >
                        <div
                          className="c2"
                          style={
                            Object {
                              "boxSizing": "border-box",
                              "flexBasis": "33.333333333333336%",
                              "flexGrow": 0,
                              "flexShrink": 0,
                              "left": "auto",
                              "marginLeft": "0%",
                              "maxWidth": "33.333333333333336%",
                              "minHeight": 1,
                              "paddingLeft": 15,
                              "paddingRight": 15,
                              "position": "relative",
                              "right": "auto",
                              "width": "33.333333333333336%",
                            }
                          }
                        >
                          <styled.label>
                            <label
                              className="c3"
                            >
                              Nome completo:
                            </label>
                          </styled.label>
                          <styled.input
                            name="fullName"
                            onBlur={[Function]}
                            onChange={[Function]}
                          >
                            <input
                              className="c4"
                              name="fullName"
                              onBlur={[Function]}
                              onChange={[Function]}
                            />
                          </styled.input>
                        </div>
                      </ScreenClassProvider>
                    </ScreenClassResolver>
                  </Col>
                </Styled(Col)>
              </div>
            </Row>
          </fieldset>
          <fieldset>
            <legend>
              Endereço
            </legend>
            <Row
              align="normal"
              component="div"
              debug={false}
              direction="row"
              gutterWidth={null}
              justify="start"
              nogutter={false}
              nowrap={false}
              style={Object {}}
            >
              <div
                style={
                  Object {
                    "alignItems": "normal",
                    "display": "flex",
                    "flexDirection": "row",
                    "flexGrow": 0,
                    "flexShrink": 0,
                    "flexWrap": "wrap",
                    "justifyContent": "flex-start",
                    "marginLeft": -15,
                    "marginRight": -15,
                  }
                }
              >
                <Styled(Col)
                  md={4}
                  xs={12}
                >
                  <Col
                    className="c2"
                    component="div"
                    debug={false}
                    lg={null}
                    md={4}
                    offset={Object {}}
                    pull={Object {}}
                    push={Object {}}
                    sm={null}
                    style={Object {}}
                    width={null}
                    xl={null}
                    xs={12}
                    xxl={null}
                  >
                    <ScreenClassResolver>
                      <ScreenClassProvider
                        fallbackScreenClass={null}
                        useOwnWidth={false}
                      >
                        <div
                          className="c2"
                          style={
                            Object {
                              "boxSizing": "border-box",
                              "flexBasis": "33.333333333333336%",
                              "flexGrow": 0,
                              "flexShrink": 0,
                              "left": "auto",
                              "marginLeft": "0%",
                              "maxWidth": "33.333333333333336%",
                              "minHeight": 1,
                              "paddingLeft": 15,
                              "paddingRight": 15,
                              "position": "relative",
                              "right": "auto",
                              "width": "33.333333333333336%",
                            }
                          }
                        >
                          <styled.label>
                            <label
                              className="c3"
                            >
                              CEP:
                            </label>
                          </styled.label>
                          <styled.input
                            name="address.zipCode"
                            onBlur={[Function]}
                            onChange={[Function]}
                          >
                            <input
                              className="c4"
                              name="address.zipCode"
                              onBlur={[Function]}
                              onChange={[Function]}
                            />
                          </styled.input>
                        </div>
                      </ScreenClassProvider>
                    </ScreenClassResolver>
                  </Col>
                </Styled(Col)>
                <Styled(Col)
                  md={4}
                  xs={12}
                >
                  <Col
                    className="c2"
                    component="div"
                    debug={false}
                    lg={null}
                    md={4}
                    offset={Object {}}
                    pull={Object {}}
                    push={Object {}}
                    sm={null}
                    style={Object {}}
                    width={null}
                    xl={null}
                    xs={12}
                    xxl={null}
                  >
                    <ScreenClassResolver>
                      <ScreenClassProvider
                        fallbackScreenClass={null}
                        useOwnWidth={false}
                      >
                        <div
                          className="c2"
                          style={
                            Object {
                              "boxSizing": "border-box",
                              "flexBasis": "33.333333333333336%",
                              "flexGrow": 0,
                              "flexShrink": 0,
                              "left": "auto",
                              "marginLeft": "0%",
                              "maxWidth": "33.333333333333336%",
                              "minHeight": 1,
                              "paddingLeft": 15,
                              "paddingRight": 15,
                              "position": "relative",
                              "right": "auto",
                              "width": "33.333333333333336%",
                            }
                          }
                        >
                          <styled.label>
                            <label
                              className="c3"
                            >
                              Rua:
                            </label>
                          </styled.label>
                          <styled.input
                            name="address.street"
                            onBlur={[Function]}
                            onChange={[Function]}
                          >
                            <input
                              className="c4"
                              name="address.street"
                              onBlur={[Function]}
                              onChange={[Function]}
                            />
                          </styled.input>
                        </div>
                      </ScreenClassProvider>
                    </ScreenClassResolver>
                  </Col>
                </Styled(Col)>
                <Styled(Col)
                  md={4}
                  xs={12}
                >
                  <Col
                    className="c2"
                    component="div"
                    debug={false}
                    lg={null}
                    md={4}
                    offset={Object {}}
                    pull={Object {}}
                    push={Object {}}
                    sm={null}
                    style={Object {}}
                    width={null}
                    xl={null}
                    xs={12}
                    xxl={null}
                  >
                    <ScreenClassResolver>
                      <ScreenClassProvider
                        fallbackScreenClass={null}
                        useOwnWidth={false}
                      >
                        <div
                          className="c2"
                          style={
                            Object {
                              "boxSizing": "border-box",
                              "flexBasis": "33.333333333333336%",
                              "flexGrow": 0,
                              "flexShrink": 0,
                              "left": "auto",
                              "marginLeft": "0%",
                              "maxWidth": "33.333333333333336%",
                              "minHeight": 1,
                              "paddingLeft": 15,
                              "paddingRight": 15,
                              "position": "relative",
                              "right": "auto",
                              "width": "33.333333333333336%",
                            }
                          }
                        >
                          <styled.label>
                            <label
                              className="c3"
                            >
                              Número:
                            </label>
                          </styled.label>
                          <styled.input
                            name="address.number"
                            onBlur={[Function]}
                            onChange={[Function]}
                            type="number"
                          >
                            <input
                              className="c4"
                              name="address.number"
                              onBlur={[Function]}
                              onChange={[Function]}
                              type="number"
                            />
                          </styled.input>
                        </div>
                      </ScreenClassProvider>
                    </ScreenClassResolver>
                  </Col>
                </Styled(Col)>
              </div>
            </Row>
            <Row
              align="normal"
              component="div"
              debug={false}
              direction="row"
              gutterWidth={null}
              justify="start"
              nogutter={false}
              nowrap={false}
              style={Object {}}
            >
              <div
                style={
                  Object {
                    "alignItems": "normal",
                    "display": "flex",
                    "flexDirection": "row",
                    "flexGrow": 0,
                    "flexShrink": 0,
                    "flexWrap": "wrap",
                    "justifyContent": "flex-start",
                    "marginLeft": -15,
                    "marginRight": -15,
                  }
                }
              >
                <Styled(Col)
                  md={4}
                  xs={12}
                >
                  <Col
                    className="c2"
                    component="div"
                    debug={false}
                    lg={null}
                    md={4}
                    offset={Object {}}
                    pull={Object {}}
                    push={Object {}}
                    sm={null}
                    style={Object {}}
                    width={null}
                    xl={null}
                    xs={12}
                    xxl={null}
                  >
                    <ScreenClassResolver>
                      <ScreenClassProvider
                        fallbackScreenClass={null}
                        useOwnWidth={false}
                      >
                        <div
                          className="c2"
                          style={
                            Object {
                              "boxSizing": "border-box",
                              "flexBasis": "33.333333333333336%",
                              "flexGrow": 0,
                              "flexShrink": 0,
                              "left": "auto",
                              "marginLeft": "0%",
                              "maxWidth": "33.333333333333336%",
                              "minHeight": 1,
                              "paddingLeft": 15,
                              "paddingRight": 15,
                              "position": "relative",
                              "right": "auto",
                              "width": "33.333333333333336%",
                            }
                          }
                        >
                          <styled.label>
                            <label
                              className="c3"
                            >
                              Bairro:
                            </label>
                          </styled.label>
                          <styled.input
                            name="address.district"
                            onBlur={[Function]}
                            onChange={[Function]}
                          >
                            <input
                              className="c4"
                              name="address.district"
                              onBlur={[Function]}
                              onChange={[Function]}
                            />
                          </styled.input>
                        </div>
                      </ScreenClassProvider>
                    </ScreenClassResolver>
                  </Col>
                </Styled(Col)>
                <Styled(Col)
                  md={4}
                  xs={12}
                >
                  <Col
                    className="c2"
                    component="div"
                    debug={false}
                    lg={null}
                    md={4}
                    offset={Object {}}
                    pull={Object {}}
                    push={Object {}}
                    sm={null}
                    style={Object {}}
                    width={null}
                    xl={null}
                    xs={12}
                    xxl={null}
                  >
                    <ScreenClassResolver>
                      <ScreenClassProvider
                        fallbackScreenClass={null}
                        useOwnWidth={false}
                      >
                        <div
                          className="c2"
                          style={
                            Object {
                              "boxSizing": "border-box",
                              "flexBasis": "33.333333333333336%",
                              "flexGrow": 0,
                              "flexShrink": 0,
                              "left": "auto",
                              "marginLeft": "0%",
                              "maxWidth": "33.333333333333336%",
                              "minHeight": 1,
                              "paddingLeft": 15,
                              "paddingRight": 15,
                              "position": "relative",
                              "right": "auto",
                              "width": "33.333333333333336%",
                            }
                          }
                        >
                          <styled.label>
                            <label
                              className="c3"
                            >
                              Cidade:
                            </label>
                          </styled.label>
                          <styled.input
                            name="address.city"
                            onBlur={[Function]}
                            onChange={[Function]}
                          >
                            <input
                              className="c4"
                              name="address.city"
                              onBlur={[Function]}
                              onChange={[Function]}
                            />
                          </styled.input>
                        </div>
                      </ScreenClassProvider>
                    </ScreenClassResolver>
                  </Col>
                </Styled(Col)>
                <Styled(Col)
                  md={4}
                  xs={12}
                >
                  <Col
                    className="c2"
                    component="div"
                    debug={false}
                    lg={null}
                    md={4}
                    offset={Object {}}
                    pull={Object {}}
                    push={Object {}}
                    sm={null}
                    style={Object {}}
                    width={null}
                    xl={null}
                    xs={12}
                    xxl={null}
                  >
                    <ScreenClassResolver>
                      <ScreenClassProvider
                        fallbackScreenClass={null}
                        useOwnWidth={false}
                      >
                        <div
                          className="c2"
                          style={
                            Object {
                              "boxSizing": "border-box",
                              "flexBasis": "33.333333333333336%",
                              "flexGrow": 0,
                              "flexShrink": 0,
                              "left": "auto",
                              "marginLeft": "0%",
                              "maxWidth": "33.333333333333336%",
                              "minHeight": 1,
                              "paddingLeft": 15,
                              "paddingRight": 15,
                              "position": "relative",
                              "right": "auto",
                              "width": "33.333333333333336%",
                            }
                          }
                        >
                          <styled.label>
                            <label
                              className="c3"
                            >
                              Estado:
                            </label>
                          </styled.label>
                          <styled.select
                            name="address.state"
                            onBlur={[Function]}
                            onChange={[Function]}
                          >
                            <select
                              className="c5"
                              name="address.state"
                              onBlur={[Function]}
                              onChange={[Function]}
                            >
                              <option
                                value=""
                              >
                                Selecione...
                              </option>
                              <option
                                key="TT"
                                value="TT"
                              >
                                Test
                              </option>
                            </select>
                          </styled.select>
                        </div>
                      </ScreenClassProvider>
                    </ScreenClassResolver>
                  </Col>
                </Styled(Col)>
              </div>
            </Row>
          </fieldset>
          <Row
            align="normal"
            component="div"
            debug={false}
            direction="row"
            gutterWidth={null}
            justify="start"
            nogutter={false}
            nowrap={false}
            style={Object {}}
          >
            <div
              style={
                Object {
                  "alignItems": "normal",
                  "display": "flex",
                  "flexDirection": "row",
                  "flexGrow": 0,
                  "flexShrink": 0,
                  "flexWrap": "wrap",
                  "justifyContent": "flex-start",
                  "marginLeft": -15,
                  "marginRight": -15,
                }
              }
            >
              <Col
                component="div"
                debug={false}
                lg={null}
                md={4}
                offset={Object {}}
                pull={Object {}}
                push={Object {}}
                sm={null}
                style={Object {}}
                width={null}
                xl={null}
                xs={12}
                xxl={null}
              >
                <ScreenClassResolver>
                  <ScreenClassProvider
                    fallbackScreenClass={null}
                    useOwnWidth={false}
                  >
                    <div
                      style={
                        Object {
                          "boxSizing": "border-box",
                          "flexBasis": "33.333333333333336%",
                          "flexGrow": 0,
                          "flexShrink": 0,
                          "left": "auto",
                          "marginLeft": "0%",
                          "maxWidth": "33.333333333333336%",
                          "minHeight": 1,
                          "paddingLeft": 15,
                          "paddingRight": 15,
                          "position": "relative",
                          "right": "auto",
                          "width": "33.333333333333336%",
                        }
                      }
                    >
                      <Styled(Button)
                        fluid={true}
                        type="submit"
                      >
                        <Button
                          className="c6"
                          fluid={true}
                          type="submit"
                        >
                          <styled.button
                            className="c6"
                            fluid={true}
                            type="submit"
                          >
                            <button
                              className="c7 c6"
                              type="submit"
                            >
                              Cadastrar
                            </button>
                          </styled.button>
                        </Button>
                      </Styled(Button)>
                    </div>
                  </ScreenClassProvider>
                </ScreenClassResolver>
              </Col>
            </div>
          </Row>
        </form>
      </styled.form>
    </div>
  </styled.div>
</FormUsers>
`;

exports[`FormUsers container should be able to render FormUsers with initalData and uuid successfully 1`] = `
.c7 {
  width: 100%;
  height: 47px;
  background: #08A93C;
  box-shadow: 0px 2px 2px rgba(0,0,0,0.15);
  border-radius: 0.375rem;
  border: none;
  padding: 0 1rem;
  color: #ffffff;
  font-weight: 700;
  font-size: 1rem;
  margin-top: 1rem;
  -webkit-transition: background-color 0.2s;
  transition: background-color 0.2s;
  cursor: pointer;
  outline: 0;
}

.c7:hover {
  background: #008F2D;
}

.c0 {
  margin-top: 1.5rem;
  padding: 1.5rem;
  background: #e5e5e5;
}

.c1 {
  display: -webkit-box;
  display: -webkit-flex;
  display: -ms-flexbox;
  display: flex;
  -webkit-flex-direction: column;
  -ms-flex-direction: column;
  flex-direction: column;
}

.c1 fieldset {
  padding: 1.75rem 0;
  border: none;
}

.c1 fieldset legend {
  font-size: 1.5rem;
  font-weight: 700;
}

.c2 {
  margin-bottom: 1rem;
}

.c3 {
  font-weight: 700;
}

.c4 {
  width: 100%;
  padding: 0.75rem 1rem;
  border-radius: 0.25rem;
  border: 1px solid #f3f3f3;
  font-size: 1rem;
  outline: none;
  margin-top: 0.5rem;
}

.c4:disabled {
  background: #ffffff;
}

.c5 {
  width: 100%;
  background: #ffffff;
  padding: 0.75rem 1rem;
  border-radius: 0.25rem;
  border: 1px solid #f3f3f3;
  font-size: 1rem;
  outline: none;
  margin-top: 0.5rem;
}

.c6 {
  margin-top: 0.5rem;
}

<FormUsers
  initialData={
    Object {
      "address": Object {
        "city": "Franca",
        "district": "Jardim das Palmeiras",
        "number": 462,
        "state": "SP",
        "street": "Rua Jovita",
        "zipCode": "14412206",
      },
      "document": "12345678901",
      "fullName": "Fernando Henrique Ferreira Soares",
      "login": "fq_soares",
      "password": "123456",
    }
  }
  uuid="adbe514b-ee76-4c4f-bb5c-d42819e6a7b8"
>
  <styled.div>
    <div
      className="c0"
    >
      <styled.form
        onSubmit={[Function]}
      >
        <form
          className="c1"
          onSubmit={[Function]}
        >
          <fieldset>
            <legend>
              Informações Pessoais:
            </legend>
            <Row
              align="normal"
              component="div"
              debug={false}
              direction="row"
              gutterWidth={null}
              justify="start"
              nogutter={false}
              nowrap={false}
              style={Object {}}
            >
              <div
                style={
                  Object {
                    "alignItems": "normal",
                    "display": "flex",
                    "flexDirection": "row",
                    "flexGrow": 0,
                    "flexShrink": 0,
                    "flexWrap": "wrap",
                    "justifyContent": "flex-start",
                    "marginLeft": -15,
                    "marginRight": -15,
                  }
                }
              >
                <Styled(Col)
                  md={4}
                  xs={12}
                >
                  <Col
                    className="c2"
                    component="div"
                    debug={false}
                    lg={null}
                    md={4}
                    offset={Object {}}
                    pull={Object {}}
                    push={Object {}}
                    sm={null}
                    style={Object {}}
                    width={null}
                    xl={null}
                    xs={12}
                    xxl={null}
                  >
                    <ScreenClassResolver>
                      <ScreenClassProvider
                        fallbackScreenClass={null}
                        useOwnWidth={false}
                      >
                        <div
                          className="c2"
                          style={
                            Object {
                              "boxSizing": "border-box",
                              "flexBasis": "33.333333333333336%",
                              "flexGrow": 0,
                              "flexShrink": 0,
                              "left": "auto",
                              "marginLeft": "0%",
                              "maxWidth": "33.333333333333336%",
                              "minHeight": 1,
                              "paddingLeft": 15,
                              "paddingRight": 15,
                              "position": "relative",
                              "right": "auto",
                              "width": "33.333333333333336%",
                            }
                          }
                        >
                          <styled.label>
                            <label
                              className="c3"
                            >
                              Login:
                            </label>
                          </styled.label>
                          <styled.input
                            disabled={true}
                            name="login"
                            onBlur={[Function]}
                            onChange={[Function]}
                          >
                            <input
                              className="c4"
                              disabled={true}
                              name="login"
                              onBlur={[Function]}
                              onChange={[Function]}
                            />
                          </styled.input>
                        </div>
                      </ScreenClassProvider>
                    </ScreenClassResolver>
                  </Col>
                </Styled(Col)>
                <Styled(Col)
                  md={4}
                  xs={12}
                >
                  <Col
                    className="c2"
                    component="div"
                    debug={false}
                    lg={null}
                    md={4}
                    offset={Object {}}
                    pull={Object {}}
                    push={Object {}}
                    sm={null}
                    style={Object {}}
                    width={null}
                    xl={null}
                    xs={12}
                    xxl={null}
                  >
                    <ScreenClassResolver>
                      <ScreenClassProvider
                        fallbackScreenClass={null}
                        useOwnWidth={false}
                      >
                        <div
                          className="c2"
                          style={
                            Object {
                              "boxSizing": "border-box",
                              "flexBasis": "33.333333333333336%",
                              "flexGrow": 0,
                              "flexShrink": 0,
                              "left": "auto",
                              "marginLeft": "0%",
                              "maxWidth": "33.333333333333336%",
                              "minHeight": 1,
                              "paddingLeft": 15,
                              "paddingRight": 15,
                              "position": "relative",
                              "right": "auto",
                              "width": "33.333333333333336%",
                            }
                          }
                        >
                          <styled.label>
                            <label
                              className="c3"
                            >
                              Senha:
                            </label>
                          </styled.label>
                          <styled.input
                            name="password"
                            onBlur={[Function]}
                            onChange={[Function]}
                            type="password"
                          >
                            <input
                              className="c4"
                              name="password"
                              onBlur={[Function]}
                              onChange={[Function]}
                              type="password"
                            />
                          </styled.input>
                        </div>
                      </ScreenClassProvider>
                    </ScreenClassResolver>
                  </Col>
                </Styled(Col)>
              </div>
            </Row>
            <Row
              align="normal"
              component="div"
              debug={false}
              direction="row"
              gutterWidth={null}
              justify="start"
              nogutter={false}
              nowrap={false}
              style={Object {}}
            >
              <div
                style={
                  Object {
                    "alignItems": "normal",
                    "display": "flex",
                    "flexDirection": "row",
                    "flexGrow": 0,
                    "flexShrink": 0,
                    "flexWrap": "wrap",
                    "justifyContent": "flex-start",
                    "marginLeft": -15,
                    "marginRight": -15,
                  }
                }
              >
                <Styled(Col)
                  md={4}
                  xs={12}
                >
                  <Col
                    className="c2"
                    component="div"
                    debug={false}
                    lg={null}
                    md={4}
                    offset={Object {}}
                    pull={Object {}}
                    push={Object {}}
                    sm={null}
                    style={Object {}}
                    width={null}
                    xl={null}
                    xs={12}
                    xxl={null}
                  >
                    <ScreenClassResolver>
                      <ScreenClassProvider
                        fallbackScreenClass={null}
                        useOwnWidth={false}
                      >
                        <div
                          className="c2"
                          style={
                            Object {
                              "boxSizing": "border-box",
                              "flexBasis": "33.333333333333336%",
                              "flexGrow": 0,
                              "flexShrink": 0,
                              "left": "auto",
                              "marginLeft": "0%",
                              "maxWidth": "33.333333333333336%",
                              "minHeight": 1,
                              "paddingLeft": 15,
                              "paddingRight": 15,
                              "position": "relative",
                              "right": "auto",
                              "width": "33.333333333333336%",
                            }
                          }
                        >
                          <styled.label>
                            <label
                              className="c3"
                            >
                              CPF:
                            </label>
                          </styled.label>
                          <styled.input
                            disabled={true}
                            name="document"
                            onBlur={[Function]}
                            onChange={[Function]}
                          >
                            <input
                              className="c4"
                              disabled={true}
                              name="document"
                              onBlur={[Function]}
                              onChange={[Function]}
                            />
                          </styled.input>
                        </div>
                      </ScreenClassProvider>
                    </ScreenClassResolver>
                  </Col>
                </Styled(Col)>
                <Styled(Col)
                  md={4}
                  xs={12}
                >
                  <Col
                    className="c2"
                    component="div"
                    debug={false}
                    lg={null}
                    md={4}
                    offset={Object {}}
                    pull={Object {}}
                    push={Object {}}
                    sm={null}
                    style={Object {}}
                    width={null}
                    xl={null}
                    xs={12}
                    xxl={null}
                  >
                    <ScreenClassResolver>
                      <ScreenClassProvider
                        fallbackScreenClass={null}
                        useOwnWidth={false}
                      >
                        <div
                          className="c2"
                          style={
                            Object {
                              "boxSizing": "border-box",
                              "flexBasis": "33.333333333333336%",
                              "flexGrow": 0,
                              "flexShrink": 0,
                              "left": "auto",
                              "marginLeft": "0%",
                              "maxWidth": "33.333333333333336%",
                              "minHeight": 1,
                              "paddingLeft": 15,
                              "paddingRight": 15,
                              "position": "relative",
                              "right": "auto",
                              "width": "33.333333333333336%",
                            }
                          }
                        >
                          <styled.label>
                            <label
                              className="c3"
                            >
                              Nome completo:
                            </label>
                          </styled.label>
                          <styled.input
                            name="fullName"
                            onBlur={[Function]}
                            onChange={[Function]}
                          >
                            <input
                              className="c4"
                              name="fullName"
                              onBlur={[Function]}
                              onChange={[Function]}
                            />
                          </styled.input>
                        </div>
                      </ScreenClassProvider>
                    </ScreenClassResolver>
                  </Col>
                </Styled(Col)>
              </div>
            </Row>
          </fieldset>
          <fieldset>
            <legend>
              Endereço
            </legend>
            <Row
              align="normal"
              component="div"
              debug={false}
              direction="row"
              gutterWidth={null}
              justify="start"
              nogutter={false}
              nowrap={false}
              style={Object {}}
            >
              <div
                style={
                  Object {
                    "alignItems": "normal",
                    "display": "flex",
                    "flexDirection": "row",
                    "flexGrow": 0,
                    "flexShrink": 0,
                    "flexWrap": "wrap",
                    "justifyContent": "flex-start",
                    "marginLeft": -15,
                    "marginRight": -15,
                  }
                }
              >
                <Styled(Col)
                  md={4}
                  xs={12}
                >
                  <Col
                    className="c2"
                    component="div"
                    debug={false}
                    lg={null}
                    md={4}
                    offset={Object {}}
                    pull={Object {}}
                    push={Object {}}
                    sm={null}
                    style={Object {}}
                    width={null}
                    xl={null}
                    xs={12}
                    xxl={null}
                  >
                    <ScreenClassResolver>
                      <ScreenClassProvider
                        fallbackScreenClass={null}
                        useOwnWidth={false}
                      >
                        <div
                          className="c2"
                          style={
                            Object {
                              "boxSizing": "border-box",
                              "flexBasis": "33.333333333333336%",
                              "flexGrow": 0,
                              "flexShrink": 0,
                              "left": "auto",
                              "marginLeft": "0%",
                              "maxWidth": "33.333333333333336%",
                              "minHeight": 1,
                              "paddingLeft": 15,
                              "paddingRight": 15,
                              "position": "relative",
                              "right": "auto",
                              "width": "33.333333333333336%",
                            }
                          }
                        >
                          <styled.label>
                            <label
                              className="c3"
                            >
                              CEP:
                            </label>
                          </styled.label>
                          <styled.input
                            name="address.zipCode"
                            onBlur={[Function]}
                            onChange={[Function]}
                          >
                            <input
                              className="c4"
                              name="address.zipCode"
                              onBlur={[Function]}
                              onChange={[Function]}
                            />
                          </styled.input>
                        </div>
                      </ScreenClassProvider>
                    </ScreenClassResolver>
                  </Col>
                </Styled(Col)>
                <Styled(Col)
                  md={4}
                  xs={12}
                >
                  <Col
                    className="c2"
                    component="div"
                    debug={false}
                    lg={null}
                    md={4}
                    offset={Object {}}
                    pull={Object {}}
                    push={Object {}}
                    sm={null}
                    style={Object {}}
                    width={null}
                    xl={null}
                    xs={12}
                    xxl={null}
                  >
                    <ScreenClassResolver>
                      <ScreenClassProvider
                        fallbackScreenClass={null}
                        useOwnWidth={false}
                      >
                        <div
                          className="c2"
                          style={
                            Object {
                              "boxSizing": "border-box",
                              "flexBasis": "33.333333333333336%",
                              "flexGrow": 0,
                              "flexShrink": 0,
                              "left": "auto",
                              "marginLeft": "0%",
                              "maxWidth": "33.333333333333336%",
                              "minHeight": 1,
                              "paddingLeft": 15,
                              "paddingRight": 15,
                              "position": "relative",
                              "right": "auto",
                              "width": "33.333333333333336%",
                            }
                          }
                        >
                          <styled.label>
                            <label
                              className="c3"
                            >
                              Rua:
                            </label>
                          </styled.label>
                          <styled.input
                            name="address.street"
                            onBlur={[Function]}
                            onChange={[Function]}
                          >
                            <input
                              className="c4"
                              name="address.street"
                              onBlur={[Function]}
                              onChange={[Function]}
                            />
                          </styled.input>
                        </div>
                      </ScreenClassProvider>
                    </ScreenClassResolver>
                  </Col>
                </Styled(Col)>
                <Styled(Col)
                  md={4}
                  xs={12}
                >
                  <Col
                    className="c2"
                    component="div"
                    debug={false}
                    lg={null}
                    md={4}
                    offset={Object {}}
                    pull={Object {}}
                    push={Object {}}
                    sm={null}
                    style={Object {}}
                    width={null}
                    xl={null}
                    xs={12}
                    xxl={null}
                  >
                    <ScreenClassResolver>
                      <ScreenClassProvider
                        fallbackScreenClass={null}
                        useOwnWidth={false}
                      >
                        <div
                          className="c2"
                          style={
                            Object {
                              "boxSizing": "border-box",
                              "flexBasis": "33.333333333333336%",
                              "flexGrow": 0,
                              "flexShrink": 0,
                              "left": "auto",
                              "marginLeft": "0%",
                              "maxWidth": "33.333333333333336%",
                              "minHeight": 1,
                              "paddingLeft": 15,
                              "paddingRight": 15,
                              "position": "relative",
                              "right": "auto",
                              "width": "33.333333333333336%",
                            }
                          }
                        >
                          <styled.label>
                            <label
                              className="c3"
                            >
                              Número:
                            </label>
                          </styled.label>
                          <styled.input
                            name="address.number"
                            onBlur={[Function]}
                            onChange={[Function]}
                            type="number"
                          >
                            <input
                              className="c4"
                              name="address.number"
                              onBlur={[Function]}
                              onChange={[Function]}
                              type="number"
                            />
                          </styled.input>
                        </div>
                      </ScreenClassProvider>
                    </ScreenClassResolver>
                  </Col>
                </Styled(Col)>
              </div>
            </Row>
            <Row
              align="normal"
              component="div"
              debug={false}
              direction="row"
              gutterWidth={null}
              justify="start"
              nogutter={false}
              nowrap={false}
              style={Object {}}
            >
              <div
                style={
                  Object {
                    "alignItems": "normal",
                    "display": "flex",
                    "flexDirection": "row",
                    "flexGrow": 0,
                    "flexShrink": 0,
                    "flexWrap": "wrap",
                    "justifyContent": "flex-start",
                    "marginLeft": -15,
                    "marginRight": -15,
                  }
                }
              >
                <Styled(Col)
                  md={4}
                  xs={12}
                >
                  <Col
                    className="c2"
                    component="div"
                    debug={false}
                    lg={null}
                    md={4}
                    offset={Object {}}
                    pull={Object {}}
                    push={Object {}}
                    sm={null}
                    style={Object {}}
                    width={null}
                    xl={null}
                    xs={12}
                    xxl={null}
                  >
                    <ScreenClassResolver>
                      <ScreenClassProvider
                        fallbackScreenClass={null}
                        useOwnWidth={false}
                      >
                        <div
                          className="c2"
                          style={
                            Object {
                              "boxSizing": "border-box",
                              "flexBasis": "33.333333333333336%",
                              "flexGrow": 0,
                              "flexShrink": 0,
                              "left": "auto",
                              "marginLeft": "0%",
                              "maxWidth": "33.333333333333336%",
                              "minHeight": 1,
                              "paddingLeft": 15,
                              "paddingRight": 15,
                              "position": "relative",
                              "right": "auto",
                              "width": "33.333333333333336%",
                            }
                          }
                        >
                          <styled.label>
                            <label
                              className="c3"
                            >
                              Bairro:
                            </label>
                          </styled.label>
                          <styled.input
                            name="address.district"
                            onBlur={[Function]}
                            onChange={[Function]}
                          >
                            <input
                              className="c4"
                              name="address.district"
                              onBlur={[Function]}
                              onChange={[Function]}
                            />
                          </styled.input>
                        </div>
                      </ScreenClassProvider>
                    </ScreenClassResolver>
                  </Col>
                </Styled(Col)>
                <Styled(Col)
                  md={4}
                  xs={12}
                >
                  <Col
                    className="c2"
                    component="div"
                    debug={false}
                    lg={null}
                    md={4}
                    offset={Object {}}
                    pull={Object {}}
                    push={Object {}}
                    sm={null}
                    style={Object {}}
                    width={null}
                    xl={null}
                    xs={12}
                    xxl={null}
                  >
                    <ScreenClassResolver>
                      <ScreenClassProvider
                        fallbackScreenClass={null}
                        useOwnWidth={false}
                      >
                        <div
                          className="c2"
                          style={
                            Object {
                              "boxSizing": "border-box",
                              "flexBasis": "33.333333333333336%",
                              "flexGrow": 0,
                              "flexShrink": 0,
                              "left": "auto",
                              "marginLeft": "0%",
                              "maxWidth": "33.333333333333336%",
                              "minHeight": 1,
                              "paddingLeft": 15,
                              "paddingRight": 15,
                              "position": "relative",
                              "right": "auto",
                              "width": "33.333333333333336%",
                            }
                          }
                        >
                          <styled.label>
                            <label
                              className="c3"
                            >
                              Cidade:
                            </label>
                          </styled.label>
                          <styled.input
                            name="address.city"
                            onBlur={[Function]}
                            onChange={[Function]}
                          >
                            <input
                              className="c4"
                              name="address.city"
                              onBlur={[Function]}
                              onChange={[Function]}
                            />
                          </styled.input>
                        </div>
                      </ScreenClassProvider>
                    </ScreenClassResolver>
                  </Col>
                </Styled(Col)>
                <Styled(Col)
                  md={4}
                  xs={12}
                >
                  <Col
                    className="c2"
                    component="div"
                    debug={false}
                    lg={null}
                    md={4}
                    offset={Object {}}
                    pull={Object {}}
                    push={Object {}}
                    sm={null}
                    style={Object {}}
                    width={null}
                    xl={null}
                    xs={12}
                    xxl={null}
                  >
                    <ScreenClassResolver>
                      <ScreenClassProvider
                        fallbackScreenClass={null}
                        useOwnWidth={false}
                      >
                        <div
                          className="c2"
                          style={
                            Object {
                              "boxSizing": "border-box",
                              "flexBasis": "33.333333333333336%",
                              "flexGrow": 0,
                              "flexShrink": 0,
                              "left": "auto",
                              "marginLeft": "0%",
                              "maxWidth": "33.333333333333336%",
                              "minHeight": 1,
                              "paddingLeft": 15,
                              "paddingRight": 15,
                              "position": "relative",
                              "right": "auto",
                              "width": "33.333333333333336%",
                            }
                          }
                        >
                          <styled.label>
                            <label
                              className="c3"
                            >
                              Estado:
                            </label>
                          </styled.label>
                          <styled.select
                            name="address.state"
                            onBlur={[Function]}
                            onChange={[Function]}
                            value="SP"
                          >
                            <select
                              className="c5"
                              name="address.state"
                              onBlur={[Function]}
                              onChange={[Function]}
                              value="SP"
                            >
                              <option
                                value=""
                              >
                                Selecione...
                              </option>
                              <option
                                key="TT"
                                value="TT"
                              >
                                Test
                              </option>
                            </select>
                          </styled.select>
                        </div>
                      </ScreenClassProvider>
                    </ScreenClassResolver>
                  </Col>
                </Styled(Col)>
              </div>
            </Row>
          </fieldset>
          <Row
            align="normal"
            component="div"
            debug={false}
            direction="row"
            gutterWidth={null}
            justify="start"
            nogutter={false}
            nowrap={false}
            style={Object {}}
          >
            <div
              style={
                Object {
                  "alignItems": "normal",
                  "display": "flex",
                  "flexDirection": "row",
                  "flexGrow": 0,
                  "flexShrink": 0,
                  "flexWrap": "wrap",
                  "justifyContent": "flex-start",
                  "marginLeft": -15,
                  "marginRight": -15,
                }
              }
            >
              <Col
                component="div"
                debug={false}
                lg={null}
                md={4}
                offset={Object {}}
                pull={Object {}}
                push={Object {}}
                sm={null}
                style={Object {}}
                width={null}
                xl={null}
                xs={12}
                xxl={null}
              >
                <ScreenClassResolver>
                  <ScreenClassProvider
                    fallbackScreenClass={null}
                    useOwnWidth={false}
                  >
                    <div
                      style={
                        Object {
                          "boxSizing": "border-box",
                          "flexBasis": "33.333333333333336%",
                          "flexGrow": 0,
                          "flexShrink": 0,
                          "left": "auto",
                          "marginLeft": "0%",
                          "maxWidth": "33.333333333333336%",
                          "minHeight": 1,
                          "paddingLeft": 15,
                          "paddingRight": 15,
                          "position": "relative",
                          "right": "auto",
                          "width": "33.333333333333336%",
                        }
                      }
                    >
                      <Styled(Button)
                        fluid={true}
                        type="submit"
                      >
                        <Button
                          className="c6"
                          fluid={true}
                          type="submit"
                        >
                          <styled.button
                            className="c6"
                            fluid={true}
                            type="submit"
                          >
                            <button
                              className="c7 c6"
                              type="submit"
                            >
                              Atualizar
                            </button>
                          </styled.button>
                        </Button>
                      </Styled(Button)>
                    </div>
                  </ScreenClassProvider>
                </ScreenClassResolver>
              </Col>
            </div>
          </Row>
        </form>
      </styled.form>
    </div>
  </styled.div>
</FormUsers>
`;
