// Jest Snapshot v1, https://goo.gl/fbAQLP

exports[`Loader component should be able to render Loader with text successfully 1`] = `
.c0 {
  display: -webkit-box;
  display: -webkit-flex;
  display: -ms-flexbox;
  display: flex;
  -webkit-flex-direction: column;
  -ms-flex-direction: column;
  flex-direction: column;
  -webkit-align-items: center;
  -webkit-box-align: center;
  -ms-flex-align: center;
  align-items: center;
  margin-top: 2.625rem;
}

.c0 p {
  margin-top: 1rem;
}

.c1 {
  font-size: 0.5rem;
  position: relative;
  text-indent: -9999em;
  border-radius: 50%;
  width: 3rem;
  height: 3rem;
  border-top: 0.3rem solid rgba(255,255,255,0.8);
  border-right: 0.3rem solid rgba(255,255,255,0.8);
  border-bottom: 0.3rem solid rgba(255,255,255,0.8);
  border-left: 0.3rem solid #0079e6;
  -webkit-transform: translateZ(0);
  -ms-transform: translateZ(0);
  -webkit-transform: translateZ(0);
  -ms-transform: translateZ(0);
  transform: translateZ(0);
  -webkit-animation: dGOzbh 0.6s infinite linear;
  -webkit-animation: dGOzbh 0.6s infinite linear;
  animation: dGOzbh 0.6s infinite linear;
}

.c1:after {
  border-radius: 50%;
  width: 3rem;
  height: 3rem;
}

<Loader
  text="Loading test..."
>
  <styled.div>
    <div
      className="c0"
    >
      <styled.div>
        <div
          className="c1"
        />
      </styled.div>
      <p>
        Loading test...
      </p>
    </div>
  </styled.div>
</Loader>
`;

exports[`Loader component should be able to render Loader without text successfully 1`] = `
.c0 {
  display: -webkit-box;
  display: -webkit-flex;
  display: -ms-flexbox;
  display: flex;
  -webkit-flex-direction: column;
  -ms-flex-direction: column;
  flex-direction: column;
  -webkit-align-items: center;
  -webkit-box-align: center;
  -ms-flex-align: center;
  align-items: center;
  margin-top: 2.625rem;
}

.c0 p {
  margin-top: 1rem;
}

.c1 {
  font-size: 0.5rem;
  position: relative;
  text-indent: -9999em;
  border-radius: 50%;
  width: 3rem;
  height: 3rem;
  border-top: 0.3rem solid rgba(255,255,255,0.8);
  border-right: 0.3rem solid rgba(255,255,255,0.8);
  border-bottom: 0.3rem solid rgba(255,255,255,0.8);
  border-left: 0.3rem solid #0079e6;
  -webkit-transform: translateZ(0);
  -ms-transform: translateZ(0);
  -webkit-transform: translateZ(0);
  -ms-transform: translateZ(0);
  transform: translateZ(0);
  -webkit-animation: dGOzbh 0.6s infinite linear;
  -webkit-animation: dGOzbh 0.6s infinite linear;
  animation: dGOzbh 0.6s infinite linear;
}

.c1:after {
  border-radius: 50%;
  width: 3rem;
  height: 3rem;
}

<Loader>
  <styled.div>
    <div
      className="c0"
    >
      <styled.div>
        <div
          className="c1"
        />
      </styled.div>
    </div>
  </styled.div>
</Loader>
`;
