// Jest Snapshot v1, https://goo.gl/fbAQLP

exports[`Layout container should be able to render Layout container successfully 1`] = `
.c0 {
  position: relative;
  height: 5px;
  border-radius: 2px 2px 0 0;
  background: linear-gradient( to right, #fcd000 0, #ff8a00 17%, #ff253a 34%, #ff37a8 51%, #a400e1 67%, #0086ff 83%, #00d604 100% );
}

.c1 {
  background: #0086ff;
  width: 100%;
  height: 4.5rem;
  display: -webkit-box;
  display: -webkit-flex;
  display: -ms-flexbox;
  display: flex;
  padding: 0.5rem 0;
}

.c2 {
  width: 100%;
  max-width: 1440px;
  margin: 0 auto;
  padding: 0 2.5rem;
  display: -webkit-box;
  display: -webkit-flex;
  display: -ms-flexbox;
  display: flex;
  -webkit-box-pack: justify;
  -webkit-justify-content: space-between;
  -ms-flex-pack: justify;
  justify-content: space-between;
  -webkit-align-items: center;
  -webkit-box-align: center;
  -ms-flex-align: center;
  align-items: center;
}

.c3 {
  max-height: 32px;
}

.c4 {
  width: 100%;
  max-width: 1440px;
  margin: 0 auto;
  padding: 2.5rem 0;
}

@media (max-width:420px) {
  .c2 {
    padding: 0 2rem;
  }
}

<Layout>
  <Header>
    <Strip>
      <styled.div>
        <div
          className="c0"
        />
      </styled.div>
    </Strip>
    <styled.header>
      <header
        className="c1"
      >
        <styled.nav>
          <nav
            className="c2"
          >
            <styled.img
              alt="Magalu"
              src="logo-magalu-white.png"
            >
              <img
                alt="Magalu"
                className="c3"
                src="logo-magalu-white.png"
              />
            </styled.img>
          </nav>
        </styled.nav>
      </header>
    </styled.header>
  </Header>
  <styled.div>
    <div
      className="c4"
    >
      <p>
        Testing
      </p>
    </div>
  </styled.div>
</Layout>
`;
